[
    {
	"Id":0,
	"Order":0,
	"Done":false,
	"Title":"Begin assets process"
    },
    {
	"Id":1,
	"Order":1,
	"Done":false,
	"Title":"Send email to frank"
    },
    {
	"Id":2,
	"Order":2,
	"Done":true,
	"Title":"Fly to Bangalore"
    }

]